tranches,P[Attachment],baseline,1 in 1000,1 in 10,1 in 5,1 in 250,1 in 50,1 in 100,1 in 2,1 in 500,deal_out_name
M1,0.0939,27669889.6929,320722980.0,0.0,0.0,320722980.0,320722980.0,320722980.0,0.0,320722980.0,deal_out_17HQA2_combine_state_50_80
M2,0.2894,111436098.02004994,721626705.0,676907715.3000004,117952392.38000008,721626705.0,721626705.0,721626705.0,0.0,721626705.0,deal_out_17HQA2_combine_state_50_80
B1,0.6397,70162800.43038999,160361490.0,160361490.0,160361490.0,160361490.0,160361490.0,160361490.0,51224804.89999999,160361490.0,deal_out_17HQA2_combine_state_50_80
B2,1.0,142921468.25631,160361490.00000003,160361490.0,160361490.0,160361490.00000003,160361490.0,160361490.0,160361490.0,160361490.00000003,deal_out_17HQA2_combine_state_50_80
Total,1.0,352190256.3996499,1363072665.0,997630695.3000004,438675372.3800001,1363072665.0,1363072665.0,1363072665.0,211586294.89999998,1363072665.0,deal_out_17HQA2_combine_state_50_80
